{
  "urn" : "local:alessio.bulckaen:un.seea.water.accounting:global_data_aquastat2000-2020",
  "version" : "0.0.1",
  "adapterType" : "xls",
  "localPath" : "un.seea.water.accounting/resources/global_data_aquastat2000-2020.v0.0.1",
  "geometry" : "X",
  "projectName" : "un.seea.water.accounting",
  "localName" : "global_data_aquastat2000-2020",
  "type" : null,
  "resourceTimestamp" : 1640011554142,
  "metadata" : { },
  "parameters" : {
    "column.year.searchable" : "false",
    "column..index" : "9",
    "rows.data" : "5823",
    "headers.rows" : "false",
    "column.variable_id.searchable" : "false",
    "headers.columns" : "true",
    "format.quote" : "\"",
    "column.value.index" : "6",
    "column.value.searchable" : "false",
    "format.trimspaces" : "false",
    "format.encoding" : "",
    "column.year.mapping" : "",
    "resource.type" : "csv",
    "column.md.index" : "8",
    "column.variable_name.size" : "-1",
    "column.variable_name.searchable" : "false",
    "column.cid.searchable" : "false",
    "column.year.size" : "-1",
    "time.encoding" : "",
    "column.symbol.mapping" : "",
    "column.value.mapping" : "",
    "column.cid.mapping" : "",
    "column..size" : "-1",
    "space.encoding" : "",
    "column.area_id.index" : "2",
    "column.symbol.index" : "7",
    "column.﻿gid.size" : "-1",
    "column.﻿gid.searchable" : "false",
    "column.variable_id.size" : "-1",
    "column.variable_id.index" : "4",
    "column.symbol.size" : "-1",
    "format.source" : "DEFAULT",
    "column.cid.size" : "-1",
    "format.delimiter" : ",",
    "columns.total" : "10",
    "column.area_id.mapping" : "",
    "column..searchable" : "false",
    "column.﻿gid.index" : "0",
    "column.value.size" : "-1",
    "column.﻿gid.mapping" : "",
    "column.symbol.searchable" : "false",
    "column.cid.index" : "1",
    "column.variable_id.mapping" : "",
    "column..mapping" : "",
    "rows.total" : "5829",
    "column.year.index" : "5",
    "column.area_id.searchable" : "false",
    "format.lineseparator" : "",
    "column.variable_name.mapping" : "",
    "format.nodata" : "",
    "column.variable_name.index" : "3",
    "column.md.searchable" : "false",
    "column.area_id.size" : "-1",
    "resource.file" : "global_data_aquastat2000-2020.csv",
    "column.md.mapping" : "",
    "column.md.size" : "-1",
    "columns.data" : "10"
  },
  "localPaths" : "un.seea.water.accounting/resources/global_data_aquastat2000-2020.v0.0.1/global_data_aquastat2000-2020.csv",
  "history" : [ ],
  "notifications" : [ ],
  "attributes" : [ {
    "name" : "﻿gid",
    "type" : "TEXT",
    "key" : false,
    "optional" : true,
    "exampleValue" : null,
    "index" : 0
  }, {
    "name" : "cid",
    "type" : "TEXT",
    "key" : false,
    "optional" : true,
    "exampleValue" : null,
    "index" : 0
  }, {
    "name" : "area_id",
    "type" : "NUMBER",
    "key" : false,
    "optional" : true,
    "exampleValue" : null,
    "index" : 0
  }, {
    "name" : "variable_name",
    "type" : "TEXT",
    "key" : false,
    "optional" : true,
    "exampleValue" : null,
    "index" : 0
  }, {
    "name" : "variable_id",
    "type" : "NUMBER",
    "key" : false,
    "optional" : true,
    "exampleValue" : null,
    "index" : 0
  }, {
    "name" : "year",
    "type" : "NUMBER",
    "key" : false,
    "optional" : true,
    "exampleValue" : null,
    "index" : 0
  }, {
    "name" : "value",
    "type" : "NUMBER",
    "key" : false,
    "optional" : true,
    "exampleValue" : null,
    "index" : 0
  }, {
    "name" : "symbol",
    "type" : "TEXT",
    "key" : false,
    "optional" : true,
    "exampleValue" : null,
    "index" : 0
  }, {
    "name" : "md",
    "type" : "TEXT",
    "key" : false,
    "optional" : true,
    "exampleValue" : null,
    "index" : 0
  }, {
    "name" : "",
    "type" : "NUMBER",
    "key" : false,
    "optional" : true,
    "exampleValue" : null,
    "index" : 0
  } ],
  "spatialExtent" : null,
  "dependencies" : null,
  "outputs" : null,
  "categorizables" : "Column header",
  "codelists" : [ ],
  "availability" : null,
  "exportFormats" : { }
}