geographicAreaM49Code,geographicAreaM49,aquastatElementCode,aquastatElement,flagObservationStatus,flagMethod,country_code,2018,2017,2016,2015,2014,2013,2012,2011,2010,2009,2008,2007,2006,2005,2004,2003,2002,2001,2000
100,Bulgaria,4104,Total population [1000 inhab],X,c,BGR,7051.608,7102.444,7151.953,7199.741,7245.646,7290.088,7334.003,7378.65,7425.008,7473.513,7524.087,7576.672,7631.012,7686.962,7744.632,7804.312,7866.239,7930.703,7997.957
100,Bulgaria,4105,Rural population [1000 inhab],X,c,BGR,1758.643,1794.614,1830.702,1866.828,1902.938,1939.116,1975.613,2012.821,2050.944,2090.439,2131.248,2173.353,2216.404,2260.279,2304.921,2350.579,2397.299,2445.343,2487.423
100,Bulgaria,4106,Urban population [1000 inhab],X,c,BGR,5278.205,5289.957,5300.792,5310.568,5319.207,5327.025,5334.77,5343.392,5353.646,5365.591,5379.083,5393.596,5408.555,5423.484,5438.343,5453.302,5468.787,5485.203,5510.364
104,Myanmar,4104,Total population [1000 inhab],X,c,MMR,53708.32,53382.523,53045.201,52680.726,52280.824,51852.468,51413.704,50990.617,50600.818,50250.367,49929.642,49621.475,49301.05,48949.924,48564.484,48148.902,47702.171,47225.12,46719.701
104,Myanmar,4105,Rural population [1000 inhab],X,c,MMR,37387.374,37187.526,36976.382,36757.132,36528.875,36292.944,36064.794,35854.775,35668.447,35510.138,35374.487,35246.67,35105.021,34933.87,34728.333,34492.26,34228.006,33941.554,33637.935
104,Myanmar,4106,Urban population [1000 inhab],X,c,MMR,16468.361,16183.083,15908.841,15646.537,15395.307,15155.252,14921.72,14698.256,14487.449,14290.552,14105.265,13924.916,13741.453,13548.744,13345.374,13132.634,12912.214,12686.44,12457.527
