{
  "urn" : "local:alessio.bulckaen:un.seea.water.accounting:Aquastat_data_temp_obs_horiz_example",
  "version" : "0.0.1",
  "adapterType" : "xls",
  "localPath" : "un.seea.water.accounting/resources/Aquastat_data_temp_obs_horiz_example.v0.0.1",
  "geometry" : "T1(1){period=[946684800000 1546300800000],tscope=1.0,ttype=GRID,tunit=YEAR}s1(250){bbox=[-180.00012728 180.0001272720001 -89.90012879899996 83.62294973200005],proj=EPSG:4326}",
  "projectName" : "un.seea.water.accounting",
  "localName" : "Aquastat_data_temp_obs_horiz_example",
  "type" : null,
  "resourceTimestamp" : 1647853747016,
  "metadata" : {
    "im:keywords" : "",
    "dc:comment" : "",
    "im:notes" : "",
    "dc:title" : "",
    "dc:url" : "",
    "dc:creator" : "",
    "im:thematic-area" : "",
    "dc:originator" : "",
    "im:geographic-area" : "",
    "dc:source" : ""
  },
  "parameters" : {
    "column.2010.searchable" : "false",
    "headers.rows" : "false",
    "column.2001.size" : "-1",
    "column.2000.searchable" : "false",
    "column.2018.index" : "7",
    "column.2008.index" : "17",
    "column.2016.searchable" : "false",
    "column.2013.searchable" : "false",
    "column.2007.mapping" : "",
    "column.2000.size" : "-1",
    "column.2010.index" : "15",
    "headers.columns" : "true",
    "column.aquastatelementcode.size" : "-1",
    "column.country_code.searchable" : "false",
    "column.2015.size" : "-1",
    "column.2003.searchable" : "false",
    "format.trimspaces" : "false",
    "column.2015.index" : "10",
    "column.2009.searchable" : "false",
    "column.2003.mapping" : "",
    "column.2000.index" : "25",
    "column.2017.mapping" : "",
    "column.2003.index" : "22",
    "column.2016.size" : "-1",
    "column.2013.size" : "-1",
    "column.flagmethod.searchable" : "false",
    "column.aquastatelement.mapping" : "",
    "column.flagobservationstatus.index" : "4",
    "column.2013.mapping" : "",
    "column.2002.size" : "-1",
    "column.flagobservationstatus.searchable" : "false",
    "column.2004.size" : "-1",
    "column.2007.searchable" : "false",
    "column.flagmethod.mapping" : "",
    "column.2006.index" : "19",
    "column.2017.searchable" : "false",
    "column.2012.mapping" : "",
    "column.2014.searchable" : "false",
    "column.geographicaream49code.searchable" : "false",
    "column.2004.searchable" : "false",
    "column.2008.mapping" : "",
    "column.2012.index" : "13",
    "column.2002.index" : "23",
    "column.aquastatelementcode.searchable" : "false",
    "column.country_code.size" : "-1",
    "column.flagmethod.index" : "5",
    "rows.total" : "7",
    "column.country_code.mapping" : "",
    "column.2004.mapping" : "",
    "column.2011.size" : "-1",
    "column.2015.searchable" : "false",
    "format.lineseparator" : "",
    "column.2017.size" : "-1",
    "column.2007.index" : "18",
    "column.2006.searchable" : "false",
    "column.2016.mapping" : "",
    "column.2014.size" : "-1",
    "column.geographicaream49.size" : "-1",
    "column.2013.index" : "12",
    "format.nodata" : "",
    "column.2005.searchable" : "false",
    "column.2000.mapping" : "",
    "column.2001.index" : "24",
    "column.flagobservationstatus.mapping" : "",
    "column.2007.size" : "-1",
    "column.2014.index" : "11",
    "column.2004.index" : "21",
    "rows.data" : "6",
    "column.2009.mapping" : "",
    "column.2011.mapping" : "",
    "column.aquastatelementcode.index" : "2",
    "column.aquastatelement.size" : "-1",
    "column.geographicaream49code.index" : "0",
    "column.2005.mapping" : "",
    "format.quote" : "\"",
    "column.geographicaream49.mapping" : "",
    "column.2002.searchable" : "false",
    "column.aquastatelementcode.mapping" : "",
    "column.2012.searchable" : "false",
    "column.2001.mapping" : "",
    "format.encoding" : "",
    "column.geographicaream49.searchable" : "false",
    "resource.type" : "csv",
    "column.2017.index" : "8",
    "column.2008.searchable" : "false",
    "column.geographicaream49.index" : "1",
    "column.geographicaream49code.size" : "-1",
    "column.2011.searchable" : "false",
    "column.2009.index" : "16",
    "time.encoding" : "COLUMN_HEADER:([0-9]*)$",
    "column.2018.searchable" : "false",
    "column.2015.mapping" : "",
    "column.2008.size" : "-1",
    "column.aquastatelement.index" : "3",
    "column.2011.index" : "14",
    "column.2010.size" : "-1",
    "column.2005.size" : "-1",
    "column.2001.searchable" : "false",
    "column.flagobservationstatus.size" : "-1",
    "column.flagmethod.size" : "-1",
    "space.encoding" : "country_code->local:ferdinando.villa:im.data.global:admin.countries.un#gid",
    "column.2010.mapping" : "",
    "column.country_code.index" : "6",
    "column.2012.size" : "-1",
    "format.source" : "DEFAULT",
    "format.delimiter" : ",",
    "columns.total" : "26",
    "column.2006.mapping" : "",
    "column.2018.size" : "-1",
    "column.2005.index" : "20",
    "column.2018.mapping" : "",
    "column.aquastatelement.searchable" : "false",
    "column.2003.size" : "-1",
    "column.geographicaream49code.mapping" : "",
    "column.2009.size" : "-1",
    "column.2006.size" : "-1",
    "column.2002.mapping" : "",
    "column.2014.mapping" : "",
    "resource.file" : "Aquastat_data_temp_obs_horiz_example.csv",
    "column.2016.index" : "9",
    "columns.data" : "26"
  },
  "localPaths" : "un.seea.water.accounting/resources/Aquastat_data_temp_obs_horiz_example.v0.0.1/Aquastat_data_temp_obs_horiz_example.csv",
  "history" : [ ],
  "notifications" : [ ],
  "attributes" : [ {
    "name" : "geographicaream49code",
    "type" : "NUMBER",
    "key" : false,
    "optional" : true,
    "exampleValue" : null,
    "index" : 0
  }, {
    "name" : "geographicaream49",
    "type" : "TEXT",
    "key" : false,
    "optional" : true,
    "exampleValue" : null,
    "index" : 1
  }, {
    "name" : "aquastatelementcode",
    "type" : "NUMBER",
    "key" : false,
    "optional" : true,
    "exampleValue" : null,
    "index" : 2
  }, {
    "name" : "aquastatelement",
    "type" : "TEXT",
    "key" : false,
    "optional" : true,
    "exampleValue" : null,
    "index" : 3
  }, {
    "name" : "flagobservationstatus",
    "type" : "TEXT",
    "key" : false,
    "optional" : true,
    "exampleValue" : null,
    "index" : 4
  }, {
    "name" : "flagmethod",
    "type" : "TEXT",
    "key" : false,
    "optional" : true,
    "exampleValue" : null,
    "index" : 5
  }, {
    "name" : "country_code",
    "type" : "TEXT",
    "key" : false,
    "optional" : true,
    "exampleValue" : null,
    "index" : 6
  }, {
    "name" : "2018",
    "type" : "NUMBER",
    "key" : false,
    "optional" : true,
    "exampleValue" : null,
    "index" : 7
  }, {
    "name" : "2017",
    "type" : "NUMBER",
    "key" : false,
    "optional" : true,
    "exampleValue" : null,
    "index" : 8
  }, {
    "name" : "2016",
    "type" : "NUMBER",
    "key" : false,
    "optional" : true,
    "exampleValue" : null,
    "index" : 9
  }, {
    "name" : "2015",
    "type" : "NUMBER",
    "key" : false,
    "optional" : true,
    "exampleValue" : null,
    "index" : 10
  }, {
    "name" : "2014",
    "type" : "NUMBER",
    "key" : false,
    "optional" : true,
    "exampleValue" : null,
    "index" : 11
  }, {
    "name" : "2013",
    "type" : "NUMBER",
    "key" : false,
    "optional" : true,
    "exampleValue" : null,
    "index" : 12
  }, {
    "name" : "2012",
    "type" : "NUMBER",
    "key" : false,
    "optional" : true,
    "exampleValue" : null,
    "index" : 13
  }, {
    "name" : "2011",
    "type" : "NUMBER",
    "key" : false,
    "optional" : true,
    "exampleValue" : null,
    "index" : 14
  }, {
    "name" : "2010",
    "type" : "NUMBER",
    "key" : false,
    "optional" : true,
    "exampleValue" : null,
    "index" : 15
  }, {
    "name" : "2009",
    "type" : "NUMBER",
    "key" : false,
    "optional" : true,
    "exampleValue" : null,
    "index" : 16
  }, {
    "name" : "2008",
    "type" : "NUMBER",
    "key" : false,
    "optional" : true,
    "exampleValue" : null,
    "index" : 17
  }, {
    "name" : "2007",
    "type" : "NUMBER",
    "key" : false,
    "optional" : true,
    "exampleValue" : null,
    "index" : 18
  }, {
    "name" : "2006",
    "type" : "NUMBER",
    "key" : false,
    "optional" : true,
    "exampleValue" : null,
    "index" : 19
  }, {
    "name" : "2005",
    "type" : "NUMBER",
    "key" : false,
    "optional" : true,
    "exampleValue" : null,
    "index" : 20
  }, {
    "name" : "2004",
    "type" : "NUMBER",
    "key" : false,
    "optional" : true,
    "exampleValue" : null,
    "index" : 21
  }, {
    "name" : "2003",
    "type" : "NUMBER",
    "key" : false,
    "optional" : true,
    "exampleValue" : null,
    "index" : 22
  }, {
    "name" : "2002",
    "type" : "NUMBER",
    "key" : false,
    "optional" : true,
    "exampleValue" : null,
    "index" : 23
  }, {
    "name" : "2001",
    "type" : "NUMBER",
    "key" : false,
    "optional" : true,
    "exampleValue" : null,
    "index" : 24
  }, {
    "name" : "2000",
    "type" : "NUMBER",
    "key" : false,
    "optional" : true,
    "exampleValue" : null,
    "index" : 25
  } ],
  "spatialExtent" : null,
  "dependencies" : null,
  "outputs" : null,
  "categorizables" : "Column header",
  "codelists" : [ ],
  "availability" : null,
  "exportFormats" : { }
}