{
  "urn" : "local:alessio.bulckaen:un.seea.water.accounting:tabular_data_example",
  "version" : "0.0.1",
  "adapterType" : "xls",
  "localPath" : "un.seea.water.accounting/resources/tabular_data_example.v0.0.1",
  "geometry" : "T1(1){period=[946684800000 1546300800000],tscope=1.0,ttype=GRID,tunit=YEAR}s1(250){bbox=[-180.00012728 180.0001272720001 -89.90012879899996 83.62294973200005],proj=EPSG:4326}",
  "projectName" : "un.seea.water.accounting",
  "localName" : "tabular_data_example",
  "type" : null,
  "resourceTimestamp" : 1663079558125,
  "metadata" : {
    "im:keywords" : "",
    "dc:comment" : "",
    "im:notes" : "",
    "dc:title" : "",
    "dc:url" : "",
    "dc:creator" : "",
    "im:thematic-area" : "",
    "dc:originator" : "",
    "im:geographic-area" : "",
    "dc:source" : ""
  },
  "parameters" : {
    "column.year.searchable" : "false",
    "column.gid.mapping" : "",
    "space.encoding" : "cid->local:ferdinando.villa:im.data.global:admin.countries.un#gid",
    "column.area_id.index" : "2",
    "column.column_header_value.size" : "-1",
    "rows.data" : "5800",
    "column.variable_id.size" : "-1",
    "headers.rows" : "false",
    "column.variable_id.index" : "4",
    "value.type" : "NUMBER",
    "format.source" : "DEFAULT",
    "column.cid.size" : "-1",
    "format.delimiter" : ",",
    "columns.total" : "7",
    "column.area_id.mapping" : "",
    "column.variable_id.searchable" : "false",
    "column.column_header_value.mapping" : "",
    "headers.columns" : "true",
    "format.quote" : "\"",
    "column.cid.index" : "1",
    "column.variable_id.mapping" : "",
    "format.trimspaces" : "false",
    "rows.total" : "5801",
    "value.functional" : "",
    "column.year.index" : "5",
    "column.gid.size" : "-1",
    "column.area_id.searchable" : "false",
    "format.lineseparator" : "",
    "column.variable_name.mapping" : "",
    "format.encoding" : "",
    "column.gid.index" : "0",
    "column.year.mapping" : "",
    "column.column_header_value.index" : "6",
    "resource.type" : "csv",
    "column.variable_name.size" : "-1",
    "column.variable_name.searchable" : "false",
    "format.nodata" : "",
    "column.cid.searchable" : "false",
    "column.column_header_value.searchable" : "false",
    "column.year.size" : "-1",
    "column.variable_name.index" : "3",
    "value.column" : "column_header_value",
    "time.encoding" : "year->YEAR",
    "column.area_id.size" : "-1",
    "resource.file" : "tabular_data_example.csv",
    "column.gid.searchable" : "false",
    "columns.data" : "7",
    "column.cid.mapping" : ""
  },
  "localPaths" : "un.seea.water.accounting/resources/tabular_data_example.v0.0.1/tabular_data_example.csv",
  "history" : [ ],
  "notifications" : {
    "level" : "INFO",
    "timestamp" : 1663079558140,
    "message" : "Rebuild data cache after source file modification",
    "type" : "None",
    "identity" : null,
    "id" : null
  },
  "attributes" : [ {
    "name" : "gid",
    "type" : "TEXT",
    "key" : false,
    "optional" : true,
    "exampleValue" : null,
    "index" : 0
  }, {
    "name" : "cid",
    "type" : "TEXT",
    "key" : false,
    "optional" : true,
    "exampleValue" : null,
    "index" : 1
  }, {
    "name" : "area_id",
    "type" : "NUMBER",
    "key" : false,
    "optional" : true,
    "exampleValue" : null,
    "index" : 2
  }, {
    "name" : "variable_name",
    "type" : "TEXT",
    "key" : false,
    "optional" : true,
    "exampleValue" : null,
    "index" : 3
  }, {
    "name" : "variable_id",
    "type" : "NUMBER",
    "key" : false,
    "optional" : true,
    "exampleValue" : null,
    "index" : 4
  }, {
    "name" : "year",
    "type" : "NUMBER",
    "key" : false,
    "optional" : true,
    "exampleValue" : null,
    "index" : 5
  }, {
    "name" : "column_header_value",
    "type" : "NUMBER",
    "key" : false,
    "optional" : true,
    "exampleValue" : null,
    "index" : 6
  } ],
  "spatialExtent" : null,
  "dependencies" : null,
  "outputs" : null,
  "categorizables" : "Column header",
  "codelists" : [ ],
  "availability" : null,
  "exportFormats" : { }
}