{
  "urn" : "local:alessio.bulckaen:un.seea.water.accounting:Aquastat_data_allcountries_2000-2020_example",
  "version" : "0.0.1",
  "adapterType" : "xls",
  "localPath" : "un.seea.water.accounting/resources/Aquastat_data_allcountries_2000-2020_example.v0.0.1",
  "geometry" : "T1(1){period=[-38941344000000 -34018358400000],tscope=1.0,ttype=GRID,tunit=YEAR}s1(250){bbox=[-180.00012728 180.0001272720001 -89.90012879899996 83.62294973200005],proj=EPSG:4326}",
  "projectName" : "un.seea.water.accounting",
  "localName" : "Aquastat_data_allcountries_2000-2020_example",
  "type" : null,
  "resourceTimestamp" : 1647338012475,
  "metadata" : {
    "im:keywords" : "",
    "dc:comment" : "",
    "im:notes" : "",
    "dc:title" : "",
    "dc:url" : "",
    "dc:creator" : "",
    "im:thematic-area" : "",
    "dc:originator" : "",
    "im:geographic-area" : "",
    "dc:source" : ""
  },
  "parameters" : {
    "column.flagobservationstatus.mapping" : "",
    "column.year.searchable" : "false",
    "rows.data" : "36121",
    "headers.rows" : "false",
    "column.aquastatelementcode.index" : "2",
    "column.aquastatelement.size" : "-1",
    "column.geographicaream49code.index" : "0",
    "headers.columns" : "true",
    "format.quote" : "\"",
    "column.aquastatelementcode.size" : "-1",
    "column.country_code.searchable" : "false",
    "column.value.index" : "5",
    "column.geographicaream49.mapping" : "",
    "column.value.searchable" : "false",
    "format.trimspaces" : "false",
    "column.aquastatelementcode.mapping" : "",
    "format.encoding" : "",
    "column.geographicaream49.searchable" : "false",
    "column.year.mapping" : "",
    "resource.type" : "csv",
    "column.timepointyears.searchable" : "false",
    "column.year.size" : "-1",
    "column.geographicaream49.index" : "1",
    "column.geographicaream49code.size" : "-1",
    "column.flagmethod.searchable" : "false",
    "time.encoding" : "year->YEAR",
    "column.aquastatelement.mapping" : "",
    "column.flagobservationstatus.index" : "6",
    "column.aquastatelement.index" : "3",
    "column.value.mapping" : "",
    "column.flagobservationstatus.searchable" : "false",
    "column.flagobservationstatus.size" : "-1",
    "column.flagmethod.size" : "-1",
    "space.encoding" : "country_code->local:ferdinando.villa:im.data.global:admin.countries.un#gid",
    "column.flagmethod.mapping" : "",
    "column.country_code.index" : "8",
    "column.geographicaream49code.searchable" : "false",
    "format.source" : "DEFAULT",
    "format.delimiter" : ",",
    "columns.total" : "10",
    "column.aquastatelementcode.searchable" : "false",
    "column.value.size" : "-1",
    "column.country_code.size" : "-1",
    "column.flagmethod.index" : "7",
    "rows.total" : "36122",
    "column.country_code.mapping" : "",
    "column.year.index" : "9",
    "format.lineseparator" : "",
    "column.aquastatelement.searchable" : "false",
    "column.geographicaream49code.mapping" : "",
    "column.geographicaream49.size" : "-1",
    "format.nodata" : "",
    "column.timepointyears.mapping" : "",
    "column.timepointyears.index" : "4",
    "resource.file" : "Aquastat_data_allcountries_2000-2020_example.csv",
    "column.timepointyears.size" : "-1",
    "columns.data" : "10"
  },
  "localPaths" : "un.seea.water.accounting/resources/Aquastat_data_allcountries_2000-2020_example.v0.0.1/Aquastat_data_allcountries_2000-2020_example.csv",
  "history" : [ ],
  "notifications" : [ ],
  "attributes" : [ {
    "name" : "geographicaream49code",
    "type" : "NUMBER",
    "key" : false,
    "optional" : true,
    "exampleValue" : null,
    "index" : 0
  }, {
    "name" : "geographicaream49",
    "type" : "TEXT",
    "key" : false,
    "optional" : true,
    "exampleValue" : null,
    "index" : 1
  }, {
    "name" : "aquastatelementcode",
    "type" : "NUMBER",
    "key" : false,
    "optional" : true,
    "exampleValue" : null,
    "index" : 2
  }, {
    "name" : "aquastatelement",
    "type" : "TEXT",
    "key" : false,
    "optional" : true,
    "exampleValue" : null,
    "index" : 3
  }, {
    "name" : "timepointyears",
    "type" : "NUMBER",
    "key" : false,
    "optional" : true,
    "exampleValue" : null,
    "index" : 4
  }, {
    "name" : "value",
    "type" : "NUMBER",
    "key" : false,
    "optional" : true,
    "exampleValue" : null,
    "index" : 5
  }, {
    "name" : "flagobservationstatus",
    "type" : "TEXT",
    "key" : false,
    "optional" : true,
    "exampleValue" : null,
    "index" : 6
  }, {
    "name" : "flagmethod",
    "type" : "TEXT",
    "key" : false,
    "optional" : true,
    "exampleValue" : null,
    "index" : 7
  }, {
    "name" : "country_code",
    "type" : "TEXT",
    "key" : false,
    "optional" : true,
    "exampleValue" : null,
    "index" : 8
  }, {
    "name" : "year",
    "type" : "NUMBER",
    "key" : false,
    "optional" : true,
    "exampleValue" : null,
    "index" : 9
  } ],
  "spatialExtent" : null,
  "dependencies" : null,
  "outputs" : null,
  "categorizables" : "Column header",
  "codelists" : [ ],
  "availability" : null,
  "exportFormats" : { }
}